<?xml version="1.0" encoding="UTF-8"?>
<svg width="1045px" height="594px" viewBox="0 0 1045 594" version="1.1" xmlns="http://www.w3.org/2000/svg" xmlns:xlink="http://www.w3.org/1999/xlink">
    <!-- Generator: Sketch 55.2 (78181) - https://sketchapp.com -->
    <title>medium-icon</title>
    <desc>Created with Sketch.</desc>
    <g id="Page-1" stroke="none" stroke-width="1" fill="none" fill-rule="evenodd">
        <g id="medium-icon" transform="translate(-294.000000, -279.000000)">
            <path d="M883.45,576.26 C883.45,739.93 751.67,872.61 589.12,872.61 C426.57,872.61 294.78,739.93 294.78,576.26 C294.78,412.59 426.56,279.9 589.12,279.9 C751.68,279.9 883.45,412.59 883.45,576.26" id="Path" fill="#979797" fill-rule="nonzero"></path>
            <path d="M1206.34,576.26 C1206.34,730.32 1140.45,855.26 1059.17,855.26 C977.89,855.26 912,730.32 912,576.26 C912,422.2 977.88,297.26 1059.16,297.26 C1140.44,297.26 1206.33,422.16 1206.33,576.26" id="Path" fill="#979797" fill-rule="nonzero"></path>
            <path d="M1338.41,576.26 C1338.41,714.26 1315.24,826.2 1286.65,826.2 C1258.06,826.2 1234.9,714.29 1234.9,576.26 C1234.9,438.23 1258.07,326.32 1286.65,326.32 C1315.23,326.32 1338.41,438.22 1338.41,576.26" id="Path" fill="#979797" fill-rule="nonzero"></path>
            <path d="M1633.77,0 L1337.48,0 L1337.48,0.25 L296.29,0.25 L296.29,0 L0,0 L0,1150.07 L119.51,1150.07 L119.51,1150.51 L1529.92,1150.51 L1529.92,1150.07 L1633.77,1150.07 L1633.77,0 Z M1337.48,296.54 L1337.48,854.21 L296.29,854.21 L296.29,296.54 L1337.48,296.54 Z" id="Shape"></path>
        </g>
    </g>
</svg>