<svg xmlns="http://www.w3.org/2000/svg" xmlns:xlink="http://www.w3.org/1999/xlink" width="3800" height="136" viewBox="0 0 3800 136">
	<defs>
		<style>
			.a{fill:url(#a);}.b{fill:url(#b);}.c{fill:url(#c);}.d{fill:url(#d);}.e{fill:url(#e);}.f{fill:url(#f);}.g{fill:url(#g);}.h{fill:url(#h);}.i{fill:url(#i);}.j{fill:url(#j);}.k{fill:url(#k);}.l{fill:url(#l);}.m{fill:url(#m);}.n{fill:url(#n);}.o{fill:url(#o);}.p{fill:url(#p);}
		</style>
		<linearGradient id="a" y1="0.5" x2="1" y2="0.5" gradientUnits="objectBoundingBox">
			<stop offset="0" stop-color="#474aff" />
			<stop offset="1" stop-color="#5cffd9" />
		</linearGradient>
		<linearGradient id="b" y1="0.5" x2="1" y2="0.5" gradientUnits="objectBoundingBox">
			<stop offset="0" stop-color="#f9f9f9" />
			<stop offset="1" stop-color="#5cffd9" />
		</linearGradient>
		<linearGradient id="c" y1="0.5" x2="1" y2="0.5" gradientUnits="objectBoundingBox">
			<stop offset="0" stop-color="#faf9f8" />
			<stop offset="1" stop-color="#493b2a" />
		</linearGradient>
		<linearGradient id="d" y1="0.5" x2="1" y2="0.5" gradientUnits="objectBoundingBox">
			<stop offset="0" stop-color="#faf9f8" />
			<stop offset="1" stop-color="#ff1f66" />
		</linearGradient>
		<linearGradient id="e" y1="0.5" x2="1" y2="0.5" gradientUnits="objectBoundingBox">
			<stop offset="0" stop-color="#ff1f66" />
			<stop offset="1" stop-color="#faf9f8" />
		</linearGradient>
		<linearGradient id="f" y1="0.5" x2="1" y2="0.5" gradientUnits="objectBoundingBox">
			<stop offset="0" stop-color="#474aff" />
			<stop offset="1" stop-color="#faf9f8" />
		</linearGradient>
		<linearGradient id="g" y1="0.5" x2="1" y2="0.5" gradientUnits="objectBoundingBox">
			<stop offset="0" stop-color="#faf9f8" />
			<stop offset="1" stop-color="#474aff" />
		</linearGradient>
		<linearGradient id="h" y1="0.5" x2="1" y2="0.5" gradientUnits="objectBoundingBox">
			<stop offset="0" stop-color="#ff1f66" />
			<stop offset="1" stop-color="#5cffd9" />
		</linearGradient>
		<linearGradient id="i" y1="0.5" x2="1" y2="0.5" gradientUnits="objectBoundingBox">
			<stop offset="0" stop-color="#493b2a" />
			<stop offset="1" stop-color="#ff1f66" />
		</linearGradient>
		<linearGradient id="j" y1="0.5" x2="1" y2="0.5" gradientUnits="objectBoundingBox">
			<stop offset="0" stop-color="#474aff" />
			<stop offset="1" stop-color="#493b2a" />
		</linearGradient>
		<linearGradient id="k" y1="0.5" x2="1" y2="0.5" gradientUnits="objectBoundingBox">
			<stop offset="0" stop-color="#ff1f66" />
			<stop offset="1" stop-color="#493b2a" />
		</linearGradient>
		<linearGradient id="l" y1="0.5" x2="1" y2="0.5" gradientUnits="objectBoundingBox">
			<stop offset="0" stop-color="#5cffd9" />
			<stop offset="1" stop-color="#493b2a" />
		</linearGradient>
		<linearGradient id="m" y1="0.5" x2="1" y2="0.5" gradientUnits="objectBoundingBox">
			<stop offset="0" stop-color="#493b2a" />
			<stop offset="1" stop-color="#5cffd9" />
		</linearGradient>
		<linearGradient id="n" y1="0.5" x2="1" y2="0.5" gradientUnits="objectBoundingBox">
			<stop offset="0" stop-color="#474aff" />
			<stop offset="1" stop-color="#ff1f66" />
		</linearGradient>
		<linearGradient id="o" y1="0.5" x2="1" y2="0.5" gradientUnits="objectBoundingBox">
			<stop offset="0" stop-color="#ff1f66" />
			<stop offset="1" stop-color="#474aff" />
		</linearGradient>
		<linearGradient id="p" y1="0.5" x2="1" y2="0.5" gradientUnits="objectBoundingBox">
			<stop offset="0" stop-color="#493b2a" />
			<stop offset="1" stop-color="#474aff" />
		</linearGradient>
	</defs>
	<rect class="a" width="3037.212" height="12" transform="translate(621.384 25)" />
	<rect class="b" width="3376.782" height="11" transform="translate(0 125)" />
	<rect class="c" width="1946.803" height="11" transform="translate(0 51)" />
	<rect class="d" width="532.757" height="11" transform="translate(0 74)" />
	<rect class="e" width="532.757" height="12" transform="translate(0 99)" />
	<rect class="f" width="3184.591" height="11" transform="translate(0 17)" />
	<rect class="g" width="3775.105" height="11" />
	<rect class="h" width="2011.53" height="15" transform="translate(1264.675 90)" />
	<rect class="i" width="3565.985" height="11" transform="translate(92.61 35)" />
	<rect class="j" width="2997.379" height="11" transform="translate(621.384 60)" />
	<rect class="k" width="2393.92" height="11" transform="translate(1264.675 68)" />
	<rect class="l" width="3526.153" height="11" transform="translate(92.61 108)" />
	<rect class="m" width="1583.333" height="14" transform="translate(1856.184 40)" />
	<rect class="n" width="3184.591" height="11" transform="translate(615.409 117)" />
	<rect class="o" width="3525.157" height="14" transform="translate(212.107 82)" />
	<rect class="p" width="3037.212" height="11" transform="translate(621.384 8)" />
</svg>
